<?xml version="1.0" encoding="UTF-8"?>
<svg width="122px" height="122px" viewBox="0 0 122 122" version="1.1" xmlns="http://www.w3.org/2000/svg" xmlns:xlink="http://www.w3.org/1999/xlink">
    <!-- Generator: Sketch 63.1 (92452) - https://sketch.com -->
    <title>order-ready-picker</title>
    <desc>Created with Sketch.</desc>
    <defs>
        <circle id="path-1" cx="52" cy="52" r="52"></circle>
        <filter x="-11.8%" y="-11.8%" width="123.6%" height="123.6%" filterUnits="objectBoundingBox" id="filter-2">
            <feMorphology radius="4.25" operator="dilate" in="SourceAlpha" result="shadowSpreadOuter1"></feMorphology>
            <feOffset dx="0" dy="0" in="shadowSpreadOuter1" result="shadowOffsetOuter1"></feOffset>
            <feComposite in="shadowOffsetOuter1" in2="SourceAlpha" operator="out" result="shadowOffsetOuter1"></feComposite>
            <feColorMatrix values="0 0 0 0 0.160784314   0 0 0 0 0.670588235   0 0 0 0 0.88627451  0 0 0 0.08 0" type="matrix" in="shadowOffsetOuter1"></feColorMatrix>
        </filter>
        <filter x="-12.7%" y="-12.7%" width="125.5%" height="125.5%" filterUnits="objectBoundingBox" id="filter-3">
            <feMorphology radius="10" operator="erode" in="SourceAlpha" result="shadowSpreadInner1"></feMorphology>
            <feOffset dx="0" dy="0" in="shadowSpreadInner1" result="shadowOffsetInner1"></feOffset>
            <feComposite in="shadowOffsetInner1" in2="SourceAlpha" operator="arithmetic" k2="-1" k3="1" result="shadowInnerInner1"></feComposite>
            <feColorMatrix values="0 0 0 0 0.160784314   0 0 0 0 0.670588235   0 0 0 0 0.88627451  0 0 0 0.1 0" type="matrix" in="shadowInnerInner1"></feColorMatrix>
        </filter>
    </defs>
    <g id="Page-1" stroke="none" stroke-width="1" fill="none" fill-rule="evenodd">
        <g id="011-Picker" transform="translate(-659.000000, -378.000000)">
            <g id="Group-10" transform="translate(445.000000, 347.000000)">
                <g id="Group-27">
                    <g id="order-ready-picker" transform="translate(223.000000, 40.000000)">
                        <g id="Oval">
                            <use fill="black" fill-opacity="1" filter="url(#filter-2)" xlink:href="#path-1"></use>
                            <use fill-opacity="0.1" fill="#29ABE2" fill-rule="evenodd" xlink:href="#path-1"></use>
                            <use fill="black" fill-opacity="1" filter="url(#filter-3)" xlink:href="#path-1"></use>
                            <use stroke="#29ABE2" stroke-width="0.5" xlink:href="#path-1"></use>
                        </g>
                        <g id="shopping-cart-(4)" transform="translate(24.000000, 25.000000)" fill-rule="nonzero">
                            <path d="M50.4982491,27.4432767 L46.4592624,11.2000008 C46.3937653,10.9816772 46.1754417,10.8288506 45.9571181,10.8725154 L33.0323609,12.8810925 C32.8140373,12.9247572 32.6393784,13.1212485 32.6393784,13.3395721 L33.7309964,30.0413276 C33.7528288,30.5434719 34.1676437,30.914622 34.6697879,30.8927896 L34.7789497,30.8927896 L49.7996135,28.5567271 C50.2799255,28.49123 50.6292432,28.0109181 50.5419138,27.5306062 C50.4982491,27.5087738 50.4982491,27.4651091 50.4982491,27.4432767 L50.4982491,27.4432767 Z" id="Path" fill="#FC657E"></path>
                            <path d="M33.7091641,30.0413276 L32.6175461,13.3395721 C32.6175461,13.0994161 32.7703726,12.9029249 33.0105286,12.8810925 L38.8616011,11.9641334 L37.5953242,6.89902581 C37.5079948,6.61520513 37.2241741,6.41871389 36.9403534,6.46237861 L19.9111125,9.10409419 C19.6054594,9.14775891 19.3871358,9.40974723 19.4089682,9.71540027 L20.8280716,31.700587 C20.849904,32.3555578 21.4175453,32.857702 22.0506838,32.8358697 C22.0943485,32.8358697 22.1380132,32.8358697 22.1816779,32.8140373 L34.735285,30.8709573 C34.2549731,30.9364543 33.7746612,30.6089689 33.7091641,30.128657 C33.7309964,30.1068247 33.7091641,30.0849923 33.7091641,30.0413276 L33.7091641,30.0413276 Z" id="Path" fill="#F5C84C"></path>
                            <circle id="Oval" fill="#29589F" cx="23.884602" cy="48.6643308" r="3.77699831"></circle>
                            <circle id="Oval" fill="#29589F" cx="42.5294376" cy="48.6643308" r="3.77699831"></circle>
                            <path d="M8.4927881,10.5013652 C8.44912338,10.5013652 8.40545866,10.5013652 8.36179394,10.5013652 L1.92124769,9.86822679 C1.15711509,9.80272971 0.589473724,9.12592655 0.654970805,8.36179394 C0.720467885,7.59766134 1.39727105,7.03001997 2.16140366,7.09551705 L8.62378226,7.7286555 C9.38791487,7.79415258 9.95555623,8.4927881 9.86822679,9.25692071 C9.80272971,9.95555623 9.21325599,10.5013652 8.4927881,10.5013652 L8.4927881,10.5013652 Z" id="Path" fill="#FC657E"></path>
                            <path d="M47.2452274,42.2674493 L21.0682276,42.2674493 L23.338793,38.9707629 C24.1465903,37.7918154 25.3910349,37.0058505 26.8101383,36.7656945 L44.254194,33.9056553 C44.9746619,33.7964935 45.4549739,33.1196904 45.3458121,32.3992225 C45.2366503,31.766084 44.6908413,31.2857721 44.0358704,31.2857721 L25.8495144,34.2549731 C23.9500991,34.7134527 22.2908397,35.8487354 21.1773894,37.4424977 L18.186356,41.8089697 C17.5750499,42.7040965 17.7933735,43.9267086 18.6885003,44.5380147 C19.0159857,44.7563383 19.4089682,44.8873325 19.8019507,44.8873325 L47.2452274,44.8873325 C47.9656953,44.8873325 48.555169,44.2978588 48.555169,43.5773909 C48.5770014,42.856923 47.9875276,42.2674493 47.2452274,42.2674493 L47.2452274,42.2674493 Z" id="Path" fill="#DAE6F1"></path>
                            <circle id="Oval" fill="#5290DB" cx="23.884602" cy="48.6643308" r="1.35360633"></circle>
                            <circle id="Oval" fill="#5290DB" cx="42.5294376" cy="48.6643308" r="1.35360633"></circle>
                            <path d="M55.3886977,33.2288522 L54.9302182,33.2288522 L54.9302182,32.7703726 C54.9302182,32.4428872 54.6463975,32.1590665 54.3189121,32.1590665 C53.9914267,32.1590665 53.707606,32.4428872 53.707606,32.7703726 L53.707606,33.2288522 L53.2491264,33.2288522 C52.921641,33.2288522 52.6378203,33.5126728 52.6378203,33.8401583 C52.6378203,34.1676437 52.921641,34.4514643 53.2491264,34.4514643 L53.707606,34.4514643 L53.707606,34.9099439 C53.707606,35.2374293 53.9914267,35.52125 54.3189121,35.52125 C54.6463975,35.52125 54.9302182,35.2374293 54.9302182,34.9099439 L54.9302182,34.4514643 L55.3886977,34.4514643 C55.7161831,34.4514643 56.0000038,34.1676437 56.0000038,33.8401583 C56.0000038,33.5126728 55.7161831,33.2288522 55.3886977,33.2288522 Z" id="Path" fill="#70D6F9"></path>
                            <path d="M19.3871358,5.23976644 C18.5138414,5.08693992 17.8370383,4.41013675 17.6623794,3.55867471 C17.6623794,3.53684235 17.640547,3.51500999 17.6187147,3.53684235 C17.5968823,3.53684235 17.5968823,3.55867471 17.5968823,3.55867471 C17.4222234,4.43196911 16.7454202,5.08693992 15.8721258,5.23976644 C15.8502935,5.23976644 15.8284611,5.2615988 15.8502935,5.28343116 C15.8502935,5.30526352 15.8721258,5.30526352 15.8721258,5.30526352 C16.7454202,5.45809004 17.4222234,6.13489321 17.5968823,6.98635525 C17.5968823,7.00818761 17.6187147,7.03001997 17.640547,7.00818761 C17.6623794,7.00818761 17.6623794,6.98635525 17.6623794,6.98635525 C17.8370383,6.11306085 18.5138414,5.45809004 19.3871358,5.30526352 C19.4089682,5.30526352 19.4308005,5.28343116 19.4089682,5.2615988 C19.4089682,5.23976644 19.4089682,5.23976644 19.3871358,5.23976644 Z" id="Path" fill="#F5C84C"></path>
                            <circle id="Oval" fill="#FC657E" cx="14.0818723" cy="10.1083828" r="1"></circle>
                            <circle id="Oval" fill="#87D147" cx="12.5536071" cy="29.1025361" r="1"></circle>
                            <circle id="Oval" fill="#F5C84C" cx="52.070179" cy="38.0538038" r="1"></circle>
                            <path d="M1.85575061,10.4140358 L8.29629686,11.0253419 C8.40545866,11.0471742 8.53645282,11.0471742 8.64561462,11.0253419 L18.2300207,33.0105286 C18.9286563,34.6261232 20.609748,35.6085794 22.3563368,35.3902558 C21.7231984,35.8924001 21.1773894,36.4818738 20.7189098,37.158677 L17.7278765,41.4814843 C16.9419115,42.616767 17.2257322,44.188697 18.3828473,44.9746619 C18.7976621,45.2584826 19.2998064,45.4113091 19.8019507,45.4113091 L21.0027305,45.4113091 C19.2124769,46.9832391 19.0596504,49.7122841 20.6315804,51.5025376 C22.2035103,53.2927912 24.9325553,53.4456177 26.7228088,51.8736877 C28.5130624,50.3017578 28.6658889,47.5727128 27.093959,45.7824593 C26.9847972,45.6514651 26.853803,45.5204709 26.7228088,45.4113091 L39.6475661,45.4113091 C37.8573125,46.9832391 37.704486,49.7122841 39.2764159,51.5025376 C40.8483459,53.2927912 43.5773909,53.4456177 45.3676444,51.8736877 C47.1578979,50.3017578 47.3107245,47.5727128 45.7387945,45.7824593 C45.6296327,45.6514651 45.4986386,45.5204709 45.3676444,45.4113091 L47.223395,45.4113091 C48.249516,45.4113091 49.0791456,44.5816795 49.0791456,43.5555585 C49.0791456,42.5294376 48.249516,41.6998079 47.223395,41.6998079 L22.1161808,41.6998079 L23.7972726,39.2764159 C24.5177405,38.2284626 25.6530232,37.5079948 26.8974677,37.3115035 L44.3415235,34.4514643 C45.3458121,34.2768055 46.0444476,33.338014 45.8697887,32.311893 C45.826124,32.0499047 45.7387945,31.8097488 45.585968,31.5914252 L50.6510756,30.7617955 C51.7863583,30.5871366 52.615988,29.6046804 52.615988,28.4475653 L52.615988,15.457311 C52.615988,14.4311901 51.7863583,13.6233927 50.7820697,13.6233927 C50.7602374,13.6233927 50.738405,13.6233927 50.738405,13.6233927 L47.6163775,13.7107222 L46.9614067,11.0471742 C46.8304125,10.5668623 46.3501006,10.2393769 45.8479563,10.3267064 L44.5161824,10.5231976 L44.4725176,10.2393769 C44.0358704,7.42300245 41.3941549,5.4799224 38.5777804,5.9165696 C38.2721274,5.96023432 37.9883067,6.04756376 37.6826536,6.13489321 C37.4424977,5.96023432 37.1368446,5.87290488 36.8311916,5.9165696 L34.9099439,6.22222265 L34.8226145,5.67641364 C34.2768055,2.07407422 30.8709573,-0.392982483 27.2686178,0.174658881 C23.6662784,0.742300245 21.1992217,4.12631607 21.7450307,7.7286555 L21.8323602,8.2744645 L19.8456154,8.58011754 C19.277974,8.66744698 18.8413268,9.19142363 18.8849915,9.75906499 L19.1906446,14.4748548 L11.4619891,14.6931784 L9.69356791,10.6541918 C10.54503,9.99922095 10.6978565,8.77660878 10.0428857,7.92514674 C9.71540027,7.5103319 9.23508835,7.22651121 8.68927934,7.18284649 L2.22690074,6.57154041 C1.15711509,6.46237861 0.218323602,7.24834357 0.109161801,8.31812922 C9.00668429e-15,9.38791487 0.785964966,10.3267064 1.85575061,10.4140358 Z M20.9808981,25.5438614 L20.4132568,16.7672526 L26.8756354,31.5695928 L23.8191049,32.0499047 L20.9808981,25.5438614 Z M22.6838222,32.2245636 L22.1161808,32.311893 C21.7668631,32.3555578 21.4393777,32.1372342 21.395713,31.7879164 C21.395713,31.766084 21.395713,31.7224193 21.395713,31.700587 L21.1992217,28.7750507 L22.6838222,32.2245636 Z M35.3465911,11.6803127 C35.0846028,10.064718 35.826903,8.47095574 37.2023417,7.59766134 L38.1847979,11.5274862 L35.3902558,11.9641334 L35.3465911,11.6803127 Z M46.2846035,14.8241725 L47.463551,17.5313852 L49.95244,27.5524385 L49.95244,27.5742709 C49.9961048,27.7707621 49.886943,27.9672534 49.7122841,28.0109181 C49.6904517,28.0109181 49.6904517,28.0109181 49.6686194,28.0109181 L48.8171573,28.1419122 L43.0534142,14.911502 L46.2846035,14.8241725 Z M41.8962992,14.9551667 L47.7255393,28.3384035 L44.6690089,28.8187154 L38.6651098,15.0643285 L41.8962992,14.9551667 Z M45.4113091,30.5216395 L45.1056561,29.823004 L48.1621865,29.3426921 L48.4460072,30.0194952 L45.4113091,30.5216395 Z M37.0931799,31.8970782 L36.7656945,31.1329456 L39.8222249,30.6526337 L40.1497103,31.3949339 L37.0931799,31.8970782 Z M36.3290473,30.1068247 L33.9274877,24.5832375 L33.3598463,15.7847964 L39.3855777,29.6483451 L36.3290473,30.1068247 Z M34.6697879,30.3469806 C34.4732967,30.368813 34.2986378,30.2378188 34.2768055,30.0413276 C34.2768055,30.0194952 34.2768055,29.9976629 34.2768055,29.9976629 L34.1239789,27.7707621 L35.2155969,30.2596512 L34.6697879,30.3469806 Z M35.6522441,31.3076045 L35.9797295,32.0717371 L32.9450315,32.5738814 L32.5957137,31.7879164 L35.6522441,31.3076045 Z M31.8315811,32.7485402 L28.7968831,33.2506845 L28.4475653,32.4210548 L31.5040957,31.9407429 L31.8315811,32.7485402 Z M41.2631607,31.220275 L40.9356753,30.4998071 L43.9922057,30.0194952 L44.2978588,30.7181307 L41.2631607,31.220275 Z M37.4861624,15.0643285 L43.5337262,28.9715419 L40.4771957,29.4518539 L34.2549731,15.151658 L37.4861624,15.0643285 Z M33.2288522,14.1037047 L33.1851874,13.4050691 L34.4951291,13.2085779 L34.6261232,14.0600399 L33.2288522,14.1037047 Z M32.6175461,21.6140366 L29.8666687,15.2826521 L32.2027312,15.217155 L32.6175461,21.6140366 Z M28.6877213,15.3044845 L32.8358697,24.8233935 L33.1851874,30.0631599 C33.1851874,30.2378188 33.2288522,30.3906453 33.2943492,30.5653042 L32.1590665,30.7399631 L25.4565319,15.3918139 L28.6877213,15.3044845 Z M24.2775845,15.4354786 L31.0237838,30.914622 L27.9672534,31.3949339 L21.0682276,15.5228081 L24.2775845,15.4354786 Z M27.3122826,32.5957137 L27.6834327,33.4253434 L24.6487346,33.9274877 L24.2775845,33.0760256 L27.3122826,32.5957137 Z M27.1157913,48.6643308 C27.1157913,50.4545843 25.6748556,51.8955201 23.884602,51.8955201 C22.0943485,51.8955201 20.6534127,50.4545843 20.6534127,48.6643308 C20.6534127,46.8740773 22.0943485,45.4331415 23.884602,45.4331415 C25.6748556,45.4331415 27.1157913,46.8740773 27.1157913,48.6643308 Z M45.7606269,48.6643308 C45.7606269,50.4545843 44.3196911,51.8955201 42.5294376,51.8955201 C40.7391841,51.8955201 39.2982483,50.4545843 39.2982483,48.6643308 C39.2982483,46.8740773 40.7391841,45.4331415 42.5294376,45.4331415 C44.3196911,45.4331415 45.7606269,46.8740773 45.7606269,48.6643308 Z M44.8000031,32.4865519 C44.8655001,32.9013668 44.5816795,33.2943492 44.1668646,33.3598463 L26.7228088,36.2198855 C25.1727113,36.4818738 23.7972726,37.3551682 22.9021458,38.6432775 L20.6315804,41.9617962 C20.4569215,42.2019522 20.5224186,42.55127 20.7625745,42.7259288 C20.849904,42.7914259 20.9590658,42.8132583 21.0682276,42.8132583 L47.2452274,42.8132583 C47.6600422,42.8132583 48.00936,43.162576 48.00936,43.5773909 C48.00936,43.9922057 47.6600422,44.3415235 47.2452274,44.3415235 L19.823783,44.3415235 C19.0378181,44.3415235 18.4046796,43.708385 18.4046796,42.9224201 C18.4046796,42.6385994 18.4920091,42.3547787 18.6666679,42.1146228 L21.6577013,37.7918154 C22.6838222,36.3072149 24.2339198,35.2374293 26.002341,34.8226145 L44.1231999,31.8534135 C44.4506853,31.8752458 44.7563383,32.1372342 44.8000031,32.4865519 Z M50.4982491,29.6920098 L49.5812899,29.8448363 L49.2974692,29.1898655 L49.8651106,29.1025361 C50.6510756,28.9715419 51.1968846,28.2292417 51.0658904,27.4432767 C51.0658904,27.399612 51.0440581,27.3341149 51.0440581,27.2904502 L50.1052666,23.5571166 L51.5680347,26.9193001 L51.5680347,28.4693977 C51.5462023,29.0807037 51.1095551,29.6046804 50.4982491,29.6920098 L50.4982491,29.6920098 Z M50.7820697,14.7150107 C51.1968846,14.6931784 51.5462023,15.0206638 51.5462023,15.4354786 L51.5462023,15.457311 L51.5462023,24.1902551 L48.5115043,17.2038998 L47.9220306,14.8023402 L50.7820697,14.7150107 Z M45.9571181,11.4183244 L46.5247595,13.7325545 L35.7177412,14.0163752 L35.5649147,13.0120867 L43.6210556,11.7676421 L43.7957145,12.8810925 C43.8393792,13.1867455 44.1231999,13.3832368 44.4288529,13.3395721 C44.734506,13.2959073 44.9309972,13.0120867 44.8873325,12.7064336 L44.7126736,11.5929832 L45.9571181,11.4183244 Z M38.7524393,7.00818761 C40.97934,6.65886985 43.0534142,8.18713506 43.402732,10.4140358 L43.4463967,10.6978565 L39.2545836,11.3528273 L38.2066303,7.13918177 C38.4031215,7.07368469 38.5777804,7.03001997 38.7524393,7.00818761 L38.7524393,7.00818761 Z M35.9360648,7.18284649 C35.6740765,7.42300245 35.4120882,7.68499078 35.1937646,7.99064382 L35.0846028,7.31384065 L35.9360648,7.18284649 Z M22.8148164,7.57582898 C22.3345044,4.56296327 24.3867463,1.70292409 27.4214444,1.22261217 C30.4561424,0.742300245 33.2943492,2.7945421 33.7746612,5.82924016 L33.7746612,5.87290488 L33.8619906,6.41871389 L22.9021458,8.12163798 L22.8148164,7.57582898 Z M19.9984419,9.67173555 L21.9851867,9.36608251 L22.247175,11.0035095 C22.3563368,11.7239774 23.4261225,11.5493185 23.3169607,10.8288506 L23.0549723,9.19142363 L34.0148171,7.48849954 L34.2768055,9.12592655 C34.2986378,9.25692071 34.3641349,9.36608251 34.4732967,9.45341195 C34.2113084,10.2175446 34.1458113,11.0471742 34.2768055,11.8549716 L34.3204702,12.1387922 L32.9450315,12.3571159 C32.4428872,12.4444453 32.0717371,12.8810925 32.0935694,13.4050691 L32.1372342,14.1473694 L20.2604302,14.4748548 L19.9547772,9.71540027 C19.9547772,9.69356791 19.9766095,9.67173555 19.9984419,9.67173555 L19.9984419,9.67173555 Z M19.6927889,22.5964928 L16.6580908,15.6319699 L19.2343093,15.5664728 L19.6927889,22.5964928 Z M15.4791434,15.6756346 L19.8892801,25.8276821 L20.2822626,31.766084 C20.3259273,32.7267079 21.1337246,33.4690081 22.0943485,33.4253434 C22.1598456,33.4253434 22.2253426,33.4253434 22.2908397,33.403511 L23.1423018,33.2725169 L23.5134519,34.1458113 L22.3781692,34.3423025 C21.0682276,34.5606261 19.7801183,33.8619906 19.2343093,32.6393784 L11.9204686,15.762964 L15.4791434,15.6756346 Z M2.11773894,7.64132606 L8.55828518,8.25263214 C9.01676475,8.29629686 9.36608251,8.7111117 9.32241779,9.16959127 C9.27875307,9.62807083 8.86393823,9.97738859 8.40545866,9.93372387 L1.96491241,9.34425015 C1.50643285,9.30058543 1.15711509,8.88577059 1.20077981,8.40545866 C1.24444453,7.9469791 1.65925937,7.59766134 2.11773894,7.64132606 Z" id="Shape" fill="#000000"></path>
                            <path d="M23.884602,50.5637461 C24.9325553,50.5637461 25.7840174,49.7122841 25.7840174,48.6643308 C25.7840174,47.6163775 24.9325553,46.7649155 23.884602,46.7649155 C22.8366487,46.7649155 21.9851867,47.6163775 21.9851867,48.6643308 C21.9851867,49.7122841 22.8366487,50.5637461 23.884602,50.5637461 Z M23.884602,47.8565335 C24.3430816,47.8565335 24.6923993,48.2276836 24.6923993,48.6643308 C24.6923993,49.100978 24.3212492,49.4721281 23.884602,49.4721281 C23.4261225,49.4721281 23.0768047,49.100978 23.0768047,48.6643308 C23.0768047,48.2058512 23.4479548,47.8565335 23.884602,47.8565335 Z" id="Shape" fill="#000000"></path>
                            <path d="M42.5294376,50.5637461 C43.5773909,50.5637461 44.4288529,49.7122841 44.4288529,48.6643308 C44.4288529,47.6163775 43.5773909,46.7649155 42.5294376,46.7649155 C41.4814843,46.7649155 40.6300223,47.6163775 40.6300223,48.6643308 C40.6300223,49.7122841 41.4814843,50.5637461 42.5294376,50.5637461 Z M42.5294376,47.8565335 C42.9879172,47.8565335 43.3372349,48.2276836 43.3372349,48.6643308 C43.3372349,49.1228104 42.9660848,49.4721281 42.5294376,49.4721281 C42.070958,49.4721281 41.7216403,49.100978 41.7216403,48.6643308 C41.7216403,48.2058512 42.0927904,47.8565335 42.5294376,47.8565335 Z" id="Shape" fill="#000000"></path>
                        </g>
                    </g>
                </g>
            </g>
        </g>
    </g>
</svg>