<?xml version="1.0" encoding="UTF-8"?>
<svg width="24px" height="24px" viewBox="0 0 24 24" version="1.1" xmlns="http://www.w3.org/2000/svg" xmlns:xlink="http://www.w3.org/1999/xlink">
    <!-- Generator: Sketch 63.1 (92452) - https://sketch.com -->
    <title>qr-code</title>
    <desc>Created with Sketch.</desc>
    <g id="Page-1" stroke="none" stroke-width="1" fill="none" fill-rule="evenodd">
        <g id="005-Picker" transform="translate(-316.000000, -433.000000)" fill-rule="nonzero">
            <g id="Order-cards-Copy-2" transform="translate(283.000000, 172.000000)">
                <g id="Group-12-Copy-2">
                    <g id="Group-7" transform="translate(20.000000, 248.000000)">
                        <g id="Group-6">
                            <g id="qr-code" transform="translate(13.000000, 13.000000)">
                                <path d="M0.685546913,5.02734403 C1.06415162,5.02734403 1.37109383,4.72040182 1.37109383,4.34179711 L1.37109383,1.37109383 L4.34179711,1.37109383 C4.72040182,1.37109383 5.02734403,1.06415162 5.02734403,0.685546913 C5.02734403,0.306942204 4.72040182,0 4.34179711,0 L0.685546913,0 C0.306942204,0 0,0.306942204 0,0.685546913 L0,4.34179711 C0,4.72040182 0.306942204,5.02734403 0.685546913,5.02734403 Z" id="Path" fill="#2C7BE5"></path>
                                <path d="M4.34179711,22.0289075 L1.37109383,22.0289075 L1.37109383,19.0582042 C1.37109383,18.6795995 1.06415162,18.3726573 0.685546913,18.3726573 C0.306942204,18.3726573 0,18.6795995 0,19.0582042 L0,22.7144544 C0,23.0930591 0.306942204,23.4000013 0.685546913,23.4000013 L4.34179711,23.4000013 C4.72040182,23.4000013 5.02734403,23.0930591 5.02734403,22.7144544 C5.02734403,22.3358497 4.72040182,22.0289075 4.34179711,22.0289075 Z" id="Path" fill="#2C7BE5"></path>
                                <g id="Group" transform="translate(2.787891, 2.787891)" fill="#12263F">
                                    <path d="M6.16992221,10.9687506 L0.685546913,10.9687506 C0.306942204,10.9687506 0,11.2756928 0,11.6542975 L0,17.1386728 C0,17.5172775 0.306942204,17.8242197 0.685546913,17.8242197 L6.16992221,17.8242197 C6.54852692,17.8242197 6.85546913,17.5172775 6.85546913,17.1386728 L6.85546913,11.6542975 C6.85546913,11.2756928 6.54852692,10.9687506 6.16992221,10.9687506 Z M5.4843753,16.4531259 L1.37109383,16.4531259 L1.37109383,12.3398444 L5.4843753,12.3398444 L5.4843753,16.4531259 Z" id="Shape"></path>
                                    <path d="M6.16992221,0 L0.685546913,0 C0.306942204,0 0,0.306942204 0,0.685546913 L0,6.16992221 C0,6.54852692 0.306942204,6.85546913 0.685546913,6.85546913 L6.16992221,6.85546913 C6.54852692,6.85546913 6.85546913,6.54852692 6.85546913,6.16992221 L6.85546913,0.685546913 C6.85546913,0.306942204 6.54852692,0 6.16992221,0 Z M5.4843753,5.4843753 L1.37109383,5.4843753 L1.37109383,1.37109383 L5.4843753,1.37109383 L5.4843753,5.4843753 Z" id="Shape"></path>
                                    <path d="M8.91210987,6.85546913 C9.29071457,6.85546913 9.59765678,6.54852692 9.59765678,6.16992221 L9.59765678,0.685546913 C9.59765678,0.306942204 9.29071457,0 8.91210987,0 C8.53350516,0 8.22656295,0.306942204 8.22656295,0.685546913 L8.22656295,6.16992221 C8.22656295,6.54852692 8.53350516,6.85546913 8.91210987,6.85546913 Z" id="Path"></path>
                                    <path d="M13.7109383,8.91210987 C13.7109383,8.53350516 13.403996,8.22656295 13.0253913,8.22656295 L8.91210987,8.22656295 C8.53350516,8.22656295 8.22656295,8.53350516 8.22656295,8.91210987 L8.22656295,17.1386728 C8.22656295,17.5172775 8.53350516,17.8242197 8.91210987,17.8242197 C9.29071457,17.8242197 9.59765678,17.5172775 9.59765678,17.1386728 L9.59765678,9.59765678 L13.0253913,9.59765678 C13.403996,9.59765678 13.7109383,9.29071457 13.7109383,8.91210987 Z" id="Path"></path>
                                    <path d="M0.685546913,9.59765678 L2.05664074,9.59765678 C2.43524545,9.59765678 2.74218765,9.29071457 2.74218765,8.91210987 C2.74218765,8.53350516 2.43524545,8.22656295 2.05664074,8.22656295 L0.685546913,8.22656295 C0.306942204,8.22656295 0,8.53350516 0,8.91210987 C0,9.29071457 0.306942204,9.59765678 0.685546913,9.59765678 Z" id="Path"></path>
                                    <circle id="Oval" cx="3.42773456" cy="3.42773456" r="1"></circle>
                                    <circle id="Oval" cx="3.42773456" cy="14.3964852" r="1"></circle>
                                    <path d="M6.16992221,8.22656295 L4.79882839,8.22656295 C4.42022368,8.22656295 4.11328148,8.53350516 4.11328148,8.91210987 C4.11328148,9.29071457 4.42022368,9.59765678 4.79882839,9.59765678 L6.16992221,9.59765678 C6.54852692,9.59765678 6.85546913,9.29071457 6.85546913,8.91210987 C6.85546913,8.53350516 6.54852692,8.22656295 6.16992221,8.22656295 Z" id="Path"></path>
                                </g>
                                <path d="M22.7144544,0 L19.0582042,0 C18.6795995,0 18.3726573,0.306942204 18.3726573,0.685546913 C18.3726573,1.06415162 18.6795995,1.37109383 19.0582042,1.37109383 L22.0289075,1.37109383 L22.0289075,4.34179711 C22.0289075,4.72040182 22.3358497,5.02734403 22.7144544,5.02734403 C23.0930591,5.02734403 23.4000013,4.72040182 23.4000013,4.34179711 L23.4000013,0.685546913 C23.4000013,0.306942204 23.0930591,0 22.7144544,0 Z" id="Path" fill="#2C7BE5"></path>
                                <path d="M22.7144544,18.3726573 C22.3358497,18.3726573 22.0289075,18.6795995 22.0289075,19.0582042 L22.0289075,22.0289075 L19.0582042,22.0289075 C18.6795995,22.0289075 18.3726573,22.3358497 18.3726573,22.7144544 C18.3726573,23.0930591 18.6795995,23.4000013 19.0582042,23.4000013 L22.7144544,23.4000013 C23.0930591,23.4000013 23.4000013,23.0930591 23.4000013,22.7144544 L23.4000013,19.0582042 C23.4000013,18.6795995 23.0930591,18.3726573 22.7144544,18.3726573 Z" id="Path" fill="#2C7BE5"></path>
                                <path d="M14.4421883,9.64335991 L19.9265636,9.64335991 C20.3051683,9.64335991 20.6121105,9.3364177 20.6121105,8.95781299 L20.6121105,3.47343769 C20.6121105,3.09483298 20.3051683,2.78789078 19.9265636,2.78789078 L14.4421883,2.78789078 C14.0635836,2.78789078 13.7566414,3.09483298 13.7566414,3.47343769 L13.7566414,8.95781299 C13.7566414,9.3364177 14.0635836,9.64335991 14.4421883,9.64335991 Z M15.1277352,4.1589846 L19.2410167,4.1589846 L19.2410167,8.27226608 L15.1277352,8.27226608 L15.1277352,4.1589846 Z" id="Shape" fill="#12263F"></path>
                                <path d="M20.6121105,19.9265636 L20.6121105,14.4421883 C20.6121105,14.0635836 20.3051683,13.7566414 19.9265636,13.7566414 C19.5479589,13.7566414 19.2410167,14.0635836 19.2410167,14.4421883 L19.2410167,19.2410167 L14.4421883,19.2410167 C14.0635836,19.2410167 13.7566414,19.5479589 13.7566414,19.9265636 C13.7566414,20.3051683 14.0635836,20.6121105 14.4421883,20.6121105 L19.9265636,20.6121105 C20.3051683,20.6121105 20.6121105,20.3051683 20.6121105,19.9265636 Z" id="Path" fill="#12263F"></path>
                                <path d="M16.498829,14.4421883 L16.498829,17.1843759 C16.498829,17.5629807 16.8057712,17.8699229 17.1843759,17.8699229 C17.5629807,17.8699229 17.8699229,17.5629807 17.8699229,17.1843759 L17.8699229,14.4421883 C17.8699229,14.0635836 17.5629807,13.7566414 17.1843759,13.7566414 C16.8057712,13.7566414 16.498829,14.0635836 16.498829,14.4421883 Z" id="Path" fill="#12263F"></path>
                                <path d="M13.7566414,14.4421883 L13.7566414,17.1843759 C13.7566414,17.5629807 14.0635836,17.8699229 14.4421883,17.8699229 C14.820793,17.8699229 15.1277352,17.5629807 15.1277352,17.1843759 L15.1277352,14.4421883 C15.1277352,14.0635836 14.820793,13.7566414 14.4421883,13.7566414 C14.0635836,13.7566414 13.7566414,14.0635836 13.7566414,14.4421883 Z" id="Path" fill="#12263F"></path>
                                <path d="M19.9265636,11.0144537 L18.5554698,11.0144537 C18.1768651,11.0144537 17.8699229,11.3213959 17.8699229,11.7000006 C17.8699229,12.0786054 18.1768651,12.3855476 18.5554698,12.3855476 L19.9265636,12.3855476 C20.3051683,12.3855476 20.6121105,12.0786054 20.6121105,11.7000006 C20.6121105,11.3213959 20.3051683,11.0144537 19.9265636,11.0144537 Z" id="Path" fill="#12263F"></path>
                                <circle id="Oval" fill="#12263F" cx="17.1843759" cy="6.21562534" r="1"></circle>
                            </g>
                        </g>
                    </g>
                </g>
            </g>
        </g>
    </g>
</svg>